RUM talk
…
Labelling for each condition is as follows: C1 = Neutral condition C2 = Negative condition C3 = Positive condition

Relabel the Condition variable (cond) and set as.factor()

data$cond <- recode (data$cond, "C1"="Neutral", "C2"="Negative", "C3"="Positive")
data$cond <- as.factor(data$cond)

Filter so we only have the Region 3 data - this is our critical analysis region. Ignore any zero reading times - these will be tracker loss/missing data.

data_R3 <- filter (data, reg=="R3" & DV > 0)

data_R3

## # A tibble: 572 x 7
##    subj  item  cond       seq meas  reg      DV
##    <chr> <chr> <fct>    <int> <chr> <chr> <int>
##  1 S1    I1    Neutral     60 FP    R3      867
##  2 S1    I2    Positive    44 FP    R3     1061
##  3 S1    I3    Negative    30 FP    R3      771
##  4 S1    I4    Neutral     15 FP    R3      626
##  5 S1    I5    Positive    55 FP    R3     1283
##  6 S1    I6    Negative    18 FP    R3      846
##  7 S1    I7    Neutral     32 FP    R3      547
##  8 S1    I8    Positive    70 FP    R3     1135
##  9 S1    I9    Negative    37 FP    R3     1254
## 10 S1    I10   Neutral      1 FP    R3      926
## # ... with 562 more rows
…
